{
    "page": 1,
    "per_page": 6,
    "total": 12,
    "total_pages": 2,
    "data": [
      {
        "id": 1,
        "name": "Дмитрий",
        "surname": "Иванов",
        "desc": "Специалист по видеокартам",
        "avatar": "https://reqres.in/img/faces/1-image.jpg"
      },
      {
        "id": 2,
        "name": "Дмитрий",
        "surname": "Иванов",
        "desc": "Специалист по видеокартам",
        "avatar": "https://reqres.in/img/faces/1-image.jpg"
      },
      {
        "id": 3,
        "name": "Дмитрий",
        "surname": "Иванов",
        "desc": "Специалист по видеокартам",
        "avatar": "https://reqres.in/img/faces/1-image.jpg"
      },
      {
        "id": 4,
        "name": "Дмитрий",
        "surname": "Иванов",
        "desc": "Специалист по видеокартам",
        "avatar": "https://reqres.in/img/faces/1-image.jpg"
      },
      {
        "id": 5,
        "name": "Дмитрий",
        "surname": "Иванов",
        "desc": "Специалист по видеокартам",
        "avatar": "https://reqres.in/img/faces/1-image.jpg"
      }
    ],
    "support": {
      "url": "https://reqres.in/#support-heading",
      "text": "To keep ReqRes free, contributions towards server costs are appreciated!"
    }
  }